\relax 
\citation{Smith2005}
\citation{Arning2012}
\citation{Mulloni2011}
\citation{Arning2012}
\citation{Henderson2009}
\citation{Butz2004}
\citation{Gacem2015}
\citation{Henderson2009}
\citation{Gacem2015}
\citation{Ishikawa2008}
\citation{Scarr2012}
\citation{Peruch1998}
\citation{Larrue2013}
\citation{Gaunet2001}
\citation{Wilson1999}
\citation{Ishikawa2008}
\citation{Butz2004}
\citation{Gacem2015}
\citation{Cauchard2012}
\citation{Kratz2012}
\citation{Schoning2009}
\citation{Lochtefeld2010}
\citation{Gacem2015}
\citation{Gacem2015}
\citation{Soechting1989}
\citation{Schoning2009}
\@writefile{toc}{\contentsline {section}{\numberline {1}Introduction}{1}}
\@writefile{toc}{\contentsline {section}{\numberline {2}Related Work}{1}}
\newlabel{sec:related-work}{{2}{1}}
\citation{Cao2007}
\citation{Cauchard2011}
\citation{Pinhanez2003}
\citation{Wilson2012}
\citation{Pinhanez2003}
\citation{Wilson2012}
\citation{Cao2007}
\citation{Cauchard2012}
\citation{Cauchard2011}
\citation{Lochtefeld2009}
\citation{Arning2012}
\citation{Gacem2015}
\citation{Cauchard2012}
\citation{Kaufmann2013}
\citation{Butz2004}
\citation{Gacem2015}
\citation{Gacem2015}
\citation{Kaufmann2013}
\citation{Gaunet2001}
\citation{Wilson1999}
\citation{Brooks1999}
\citation{Attree1996}
\citation{Peruch1998}
\citation{Larrue2013}
\citation{Ruddle2011}
\citation{Larrue2013}
\citation{Soechting1989}
\citation{Scarr2012}
\citation{Gacem2015}
\@writefile{lof}{\contentsline {figure}{\numberline {1}{\ignorespaces The three projection-based guidance techniques in the study: (a) an actuated pico-projector automatically highlights the target (system control), (b) an extension to the previous technique where the user adds kinesthetic feedback by pointing to the highlighted target, and (c) manual exploration with a hand-held pico-project that guides the user to the target.\relax }}{2}}
\@writefile{lof}{\contentsline {subfigure}{\numberline{(a)}{\ignorespaces { }}}{2}}
\@writefile{lof}{\contentsline {subfigure}{\numberline{(b)}{\ignorespaces { }}}{2}}
\@writefile{lof}{\contentsline {subfigure}{\numberline{(c)}{\ignorespaces { }}}{2}}
\providecommand*\caption@xref[2]{\@setref\relax\@undefined{#1}}
\newlabel{fig:concept}{{1}{2}}
\@writefile{toc}{\contentsline {subsection}{\numberline {2.1}Projection Systems}{2}}
\newlabel{sec:projection-sys}{{2.1}{2}}
\@writefile{toc}{\contentsline {subsection}{\numberline {2.2}User vs. System Control}{2}}
\newlabel{sec:user-control}{{2.2}{2}}
\@writefile{toc}{\contentsline {section}{\numberline {3}Guidance System}{2}}
\newlabel{sec:guidance_systems}{{3}{2}}
\newlabel{sub:robotic_arm}{{3}{2}}
\citation{Soechting1989}
\citation{Yee2003}
\citation{Kyritsis2009}
\citation{Gacem2015}
\@writefile{lof}{\contentsline {figure}{\numberline {2}{\ignorespaces The Robotic Arm (RA) technique. The robotic arm is initially oriented towards the door and displays the name of the target.\relax }}{3}}
\newlabel{fig:ppa}{{2}{3}}
\newlabel{sub:robotic_armK}{{3}{3}}
\newlabel{sub:handheld_guidance}{{3}{3}}
\@writefile{toc}{\contentsline {section}{\numberline {4}Study: User vs. System Control}{3}}
\@writefile{lof}{\contentsline {figure}{\numberline {4}{\ignorespaces (a) The participant is standing at the center of the room. (b) A wall and objects in the room.\relax }}{3}}
\newlabel{fig:figureroom}{{4}{3}}
\@writefile{toc}{\contentsline {subsection}{\numberline {4.1}Hypotheses}{3}}
\@writefile{toc}{\contentsline {subsection}{\numberline {4.2}Experimental Design}{3}}
\@writefile{toc}{\contentsline {subsubsection}{\numberline {4.2.1}Participants and Apparatus}{3}}
\citation{Kaufmann2013}
\citation{Attree1996}
\citation{Ruddle2011}
\citation{Larrue2013}
\@writefile{lof}{\contentsline {figure}{\numberline {3}{\ignorespaces Handheld guidance (HG): (a) the participant points the projector at the starting position to reveal the name of the next target. (b) The participant presses a button to start the trial, showing an arrow that points toward the target. (c) When the user moves the projector near the target, it is highlighted. The user presses a button to end the trial.\relax }}{4}}
\@writefile{lof}{\contentsline {subfigure}{\numberline{(a)}{\ignorespaces { }}}{4}}
\@writefile{lof}{\contentsline {subfigure}{\numberline{(b)}{\ignorespaces { }}}{4}}
\@writefile{lof}{\contentsline {subfigure}{\numberline{(c)}{\ignorespaces { }}}{4}}
\newlabel{fig:figurehandheld}{{3}{4}}
\@writefile{toc}{\contentsline {subsubsection}{\numberline {4.2.2}Method and Procedure}{4}}
\@writefile{lof}{\contentsline {figure}{\numberline {5}{\ignorespaces Memory test: (a) the hand-held pico-projector (HG) displays a cursor to the user. (b) A visual feedback (true or false) indicates if the selected item is correct.\relax }}{4}}
\newlabel{fig:figmetruefalse}{{5}{4}}
\@writefile{lof}{\contentsline {figure}{\numberline {6}{\ignorespaces The experiment was performed over two sessions. The first session was composed of four successive training and testing blocks. The second session consisted in a memory test performed two days later.\relax }}{5}}
\newlabel{fig:figuresession}{{6}{5}}
\@writefile{toc}{\contentsline {subsection}{\numberline {4.3}Results}{5}}
\@writefile{lof}{\contentsline {figure}{\numberline {7}{\ignorespaces Mean recall rates. The first four groups correspond to the memory tests during the first session. The last group corresponds to the retention test in the second session, 48 hours later. 1: Robotic Arm (RA), 2: RA + Kinesthetic feedback (RAK), 3: Handheld Guidance (HG).\relax }}{5}}
\newlabel{fig:figmeananswer}{{7}{5}}
\@writefile{toc}{\contentsline {subsubsection}{\numberline {4.3.1}Memorization}{5}}
\@writefile{lof}{\contentsline {figure}{\numberline {8}{\ignorespaces Trial exploration time for each block and technique.\relax }}{5}}
\newlabel{fig:figbarcharttrialtime}{{8}{5}}
\@writefile{lot}{\contentsline {table}{\numberline {1}{\ignorespaces Percentage of memorized targets per technique and per memory testing block\relax }}{5}}
\newlabel{tab:tablememo1}{{1}{5}}
\citation{Gaunet2001}
\citation{Wilson1999}
\citation{Kaufmann2013}
\citation{Soechting1989}
\citation{Wraga2003}
\citation{Peruch1998}
\citation{Gaunet2001}
\citation{Wilson1999}
\citation{Larrue2013}
\citation{Ruddle2011}
\@writefile{lot}{\contentsline {table}{\numberline {2}{\ignorespaces Trial Time in (s) for each technique and training block\relax }}{6}}
\newlabel{tab:tabletime1}{{2}{6}}
\@writefile{toc}{\contentsline {subsubsection}{\numberline {4.3.2}Training Time}{6}}
\@writefile{toc}{\contentsline {subsubsection}{\numberline {4.3.3}Distance Curves}{6}}
\@writefile{toc}{\contentsline {subsection}{\numberline {4.4}Discussion}{6}}
\bibstyle{abbrv}
\bibdata{biblio}
\bibcite{Arning2012}{1}
\bibcite{Attree1996}{2}
\bibcite{Brooks1999}{3}
\bibcite{Butz2004}{4}
\bibcite{Cao2007}{5}
\bibcite{Cauchard2012}{6}
\bibcite{Cauchard2011}{7}
\bibcite{Gacem2015}{8}
\bibcite{Gaunet2001}{9}
\@writefile{lof}{\contentsline {figure}{\numberline {9}{\ignorespaces A sample training trial for one user (a) at the beginning the experiment (block 1) and (b) at the end of the experiment (block 4). The plots show the distance between the center of the projected area and the target. RA is shown in red, RAK in green, and HG in blue. The thick dot on each curve indicated the moment when the target was first highlighted.\relax }}{7}}
\@writefile{lof}{\contentsline {subfigure}{\numberline{(a)}{\ignorespaces { }}}{7}}
\@writefile{lof}{\contentsline {subfigure}{\numberline{(b)}{\ignorespaces { }}}{7}}
\newlabel{fig:trajectory}{{9}{7}}
\@writefile{toc}{\contentsline {section}{\numberline {5}Conclusions}{7}}
\@writefile{toc}{\contentsline {section}{\numberline {6}References}{7}}
\bibcite{Henderson2009}{10}
\bibcite{Ishikawa2008}{11}
\bibcite{Kaufmann2013}{12}
\bibcite{Kratz2012}{13}
\bibcite{Kyritsis2009}{14}
\bibcite{Larrue2013}{15}
\bibcite{Lochtefeld2010}{16}
\bibcite{Lochtefeld2009}{17}
\bibcite{Mulloni2011}{18}
\bibcite{Peruch1998}{19}
\bibcite{Pinhanez2003}{20}
\bibcite{Ruddle2011}{21}
\bibcite{Scarr2012}{22}
\bibcite{Schoning2009}{23}
\bibcite{Smith2005}{24}
\bibcite{Soechting1989}{25}
\bibcite{Wilson2012}{26}
\bibcite{Wilson1999}{27}
\bibcite{Wraga2003}{28}
\bibcite{Yee2003}{29}
